{
  "extends": [ "tslint-react", "tslint-config-prettier"],
  "rules":{
    "jsx-no-lambda":false
  },
  "linterOptions": {
    "exclude": [
      "config/**/*.js",
      "node_modules/**/*.ts",
      "coverage/lcov-report/*.js"
    ]
  }
}
